Unicef’s mission to an equal world
…
hi:)

# time series :)

timeseries_plot_1 <- full_join(data_right_3, unicef_indicator_1, by = 
                                 c("country"))

timeseries_plot_1 %>% select(-time_period, -obs_value, -continent, -country)

# A tibble: 5,052 × 11
   alpha_2_code alpha_3_code numeric_code indicator        sex   unit_multiplier
   <chr>        <chr>               <dbl> <chr>            <chr> <lgl>          
 1 AF           AFG                     4 Proportion of p… Total NA             
 2 AF           AFG                     4 Proportion of p… Total NA             
 3 AF           AFG                     4 Proportion of p… Total NA             
 4 AF           AFG                     4 Proportion of p… Total NA             
 5 AF           AFG                     4 Proportion of p… Total NA             
 6 AF           AFG                     4 Proportion of p… Total NA             
 7 AF           AFG                     4 Proportion of p… Total NA             
 8 AF           AFG                     4 Proportion of p… Total NA             
 9 AF           AFG                     4 Proportion of p… Total NA             
10 AF           AFG                     4 Proportion of p… Total NA             
# ℹ 5,042 more rows
# ℹ 5 more variables: unit_of_measure <chr>, observation_status <lgl>,
#   observation_confidentaility <lgl>,
#   time_period_activity_related_to_when_the_data_are_collected <lgl>,
#   current_age <chr>
…
